[gd_scene load_steps=2 format=2]

[ext_resource path="res://asteroids/components/rotatable.gd" type="Script" id=1]


[node name="Rotatable" type="Node"]

script = ExtResource( 1 )
STARTING_ROTATION = 0
SPEED = 5
SPEED_FACTOR = 10
SMOOTHING = false
SMOOTHING_FACTOR = 1.0


