[gd_scene load_steps=2 format=2]

[ext_resource path="res://asteroids/systems/player/player_shoot_system.gd" type="Script" id=1]


[node name="PlayerShootSystem" type="Node" index="0"]

script = ExtResource( 1 )
COMPONENTS = "player, shoots"
ENABLED = true
AWAKE = true


