[gd_scene load_steps=2 format=2]

[ext_resource path="res://berzerk/systems/animation_system.gd" type="Script" id=1]

[node name="AnimationSystem" type="Node"]
script = ExtResource( 1 )
COMPONENTS = "animation"
