[gd_scene load_steps=2 format=2]

[ext_resource path="res://berzerk/systems/robot_aim_system.gd" type="Script" id=1]

[node name="RobotAimSystem" type="Node"]
script = ExtResource( 1 )
COMPONENTS = "robot, aim"
