[gd_scene load_steps=2 format=2]

[ext_resource path="res://berzerk/components/velocity.gd" type="Script" id=1]

[node name="Velocity" type="Node"]

script = ExtResource( 1 )
SPEED = 5
SPEED_FACTOR = 10


