[gd_scene load_steps=7 format=2]

[ext_resource path="res://berzerk_work/work_intruder.gd" type="Script" id=1]
[ext_resource path="res://berzerk/entities/intruder.tscn" type="PackedScene" id=2]
[ext_resource path="res://gs_ecs/group.gd" type="Script" id=3]
[ext_resource path="res://berzerk/systems/intruder_control_system.tscn" type="PackedScene" id=4]
[ext_resource path="res://berzerk/systems/animation_system.tscn" type="PackedScene" id=5]
[ext_resource path="res://berzerk/systems/moving_system.tscn" type="PackedScene" id=6]

[node name="WorkIntruder" type="Node"]
script = ExtResource( 1 )

[node name="Intruder" parent="." instance=ExtResource( 2 )]
editor/display_folded = true
position = Vector2( 54.5483, 88.969 )

[node name="Intruder" parent="Intruder/Components" index="2"]
HORIZONTAL_SPEED = 0.5

[node name="Velocity" parent="Intruder/Components" index="3"]
SPEED = 20

[node name="WorkIntruderSystems" type="Node" parent="."]
script = ExtResource( 3 )

[node name="IntruderControlSystem" parent="WorkIntruderSystems" instance=ExtResource( 4 )]

[node name="AnimationSystem" parent="WorkIntruderSystems" instance=ExtResource( 5 )]

[node name="MovingSystem" parent="WorkIntruderSystems" instance=ExtResource( 6 )]

[editable path="Intruder"]
